{
  "project_info": {
    "project_number": "832709400508",
    "project_id": "foodpanda-416cc",
    "storage_bucket": "foodpanda-416cc.appspot.com"
  },
  "client": [
    {
      "client_info": {
        "mobilesdk_app_id": "1:832709400508:android:7dceb30980d88038147db9",
        "android_client_info": {
          "package_name": "com.atanashristov.foodpanda_sellers_app"
        }
      },
      "oauth_client": [
        {
          "client_id": "832709400508-r8gvu2oeu5v4uai6mvkjhapm3b3si8as.apps.googleusercontent.com",
          "client_type": 3
        }
      ],
      "api_key": [
        {
          "current_key": "AIzaSyBUDOpyxDKP4BNFjOBTzmPZLklJcFkV858"
        }
      ],
      "services": {
        "appinvite_service": {
          "other_platform_oauth_client": [
            {
              "client_id": "832709400508-r8gvu2oeu5v4uai6mvkjhapm3b3si8as.apps.googleusercontent.com",
              "client_type": 3
            }
          ]
        }
      }
    }
  ],
  "configuration_version": "1"
}